1/N: 2.500000000000000139e-02
1.265822784810126563e-02
6.369426751592357008e-03
3.194888178913737886e-03
1.600000000000000077e-03

tridiagonal finite difference
error: 7.997471784025050212e+00
1.131015243423553862e+01
1.599498504341224425e+01
2.262033479352870913e+01
3.198999134231979369e+01

grad: -5.092438966723237259e-01
-5.046236218422784914e-01
-5.023122303921734311e-01
-5.011562203084796163e-01


finite volume
error: 8.950026418660721461e+00
1.265729451353440282e+01
1.790013006474162083e+01
2.531461564212257187e+01
3.580027910224598031e+01

grad: -5.092466930825787497e-01
-5.046233571127266559e-01
-5.023121003249618743e-01
-5.011561556131065576e-01


pentadiagonal finite difference
error: 9.502459552648671703e+00
1.343849168123045779e+01
1.900489246373881258e+01
2.687697511764391578e+01
3.800978219608176545e+01

grad: -5.092396857693138879e-01
-5.046219779176589482e-01
-5.023115047743546002e-01
-5.011558795409918332e-01


